{
  "preference": null,
  "pagination": {
    "total": 389,
    "limit": 10,
    "offset": 0,
    "total_pages": 39,
    "current_page": 1
  },
  "data": [
    {
      "_score": 229.17912,
      "id": 16568,
      "api_model": "artworks",
      "api_link": "https:\/\/api.artic.edu\/api\/v1\/artworks\/16568",
      "is_boosted": true,
      "title": "Water Lilies",
      "thumbnail": {
        "lqip": "data:image\/gif;base64,R0lGODlhBQAFAPQAAEZcaFFfdVtqbk9ldFBlcVFocllrcFlrd11rdl9sdFZtf15wcWV0d2R2eGByfmd6eGl6e2t9elZxiGF4kWB4kmJ9kGJ8lWeCkWSAnQAAAAAAAAAAAAAAAAAAAAAAAAAAACH5BAAAAAAALAAAAAAFAAUAAAUVoJBADXI4TLRMWHU9hmRRCjAURBACADs=",
        "width": 8808,
        "height": 8460,
        "alt_text": "Painting of a pond seen up close spotted with thickly painted pink and white water lilies and a shadow across the top third of the picture."
      },
      "timestamp": "2025-10-19T02:07:33-05:00"
    },
    {
      "_score": 212.3352,
      "id": 16571,
      "api_model": "artworks",
      "api_link": "https:\/\/api.artic.edu\/api\/v1\/artworks\/16571",
      "is_boosted": true,
      "title": "Arrival of the Normandy Train, Gare Saint-Lazare",
      "thumbnail": {
        "lqip": "data:image\/gif;base64,R0lGODlhBwAFAPUAADU8QkROS0ZPU0hSVk1YXVFWUlBXXlFaWVNcWFFkV1plVVtjWmBnWmFqXmRrX05ZYFFaYlljbF5qbGNsY2ZydmlzdWRxeGdze2l1fWx3fG16enJ4fH+KioWOkZeam5yjqZ2lqrG1ubS6vwAAAAAAAAAAAAAAAAAAAAAAAAAAAAAAAAAAAAAAAAAAAAAAAAAAAAAAAAAAAAAAAAAAAAAAAAAAAAAAAAAAAAAAAAAAAAAAAAAAAAAAAAAAAAAAAAAAACH5BAAAAAAALAAAAAAHAAUAAAYhQIKmYslQDoONp8ORBECi0OfyKEAMmAhAgFhMHA2GIhEEADs=",
        "width": 6786,
        "height": 5092,
        "alt_text": "Loosely painted image of an open-air train station. On the right, a parked train gives off an enormous plumb of white smoke, making the scene look as though it were full of clouds. A huddled mass of barely discernible people crowd around the train on both sides of the tracks. Blue, green, and gray tones dominate."
      },
      "timestamp": "2025-10-18T23:24:03-05:00"
    },
    {
      "_score": 209.99445,
      "id": 64818,
      "api_model": "artworks",
      "api_link": "https:\/\/api.artic.edu\/api\/v1\/artworks\/64818",
      "is_boosted": true,
      "title": "Stacks of Wheat (End of Summer)",
      "thumbnail": {
        "lqip": "data:image\/gif;base64,R0lGODlhCAAFAPUAAF5eVW1bVm9eVmpjW3RoXXxyV39yXmdsZmhmaXZtbG11eH57eYl5bYR7dHuAf4mDfo6HfpePdpCFeZSOfJ+VdnZ+g4ODgoCHg4iHgo+GgY2MgpmThJeTipaSjaCcmbWnh6qrpKmopqqtrKusrbGxobq4pLu5qq2zsQAAAAAAAAAAAAAAAAAAAAAAAAAAAAAAAAAAAAAAAAAAAAAAAAAAAAAAAAAAAAAAAAAAAAAAAAAAAAAAAAAAAAAAAAAAAAAAACH5BAAAAAAALAAAAAAIAAUAAAYlwJNoFAKRSiZPh7OZRCgfBWJwAAQEBU2D8VgkCAYI5uKoWDKSIAA7",
        "width": 6884,
        "height": 4068,
        "alt_text": "Painting composed of short, dense brushstrokes depicts two domed stacks of wheat that cast long shadows on a field. The angled light indicates either a rising or setting sun."
      },
      "timestamp": "2025-10-18T23:25:26-05:00"
    },
    {
      "_score": 206.00555,
      "id": 14620,
      "api_model": "artworks",
      "api_link": "https:\/\/api.artic.edu\/api\/v1\/artworks\/14620",
      "is_boosted": false,
      "title": "Cliff Walk at Pourville",
      "thumbnail": {
        "lqip": "data:image\/gif;base64,R0lGODlhBgAFAPQAAHF2XH98dIF3aHyEf4ODZ4ePaIaBc4WIc4eKd4iIc5GKd5OMeJSMeJuRfn2GkIeVlomZl5eZkJicl46ZrZKbr5qeqoaTs4eUt42XsYGZtIuYsIqZsI6cs4eWugAAAAAAACH5BAAAAAAALAAAAAAGAAUAAAUYYHdZ2JZx2lRRDvQMxgFIUSAQRcMoS4KEADs=",
        "width": 6356,
        "height": 5090,
        "alt_text": "Painting of a cliff overlooking the sea. Two figures in long dresses, one with a parasol, stand on the cliff beneath blue sky."
      },
      "timestamp": "2025-10-18T23:24:05-05:00"
    },
    {
      "_score": 203.2672,
      "id": 87088,
      "api_model": "artworks",
      "api_link": "https:\/\/api.artic.edu\/api\/v1\/artworks\/87088",
      "is_boosted": false,
      "title": "Water Lily Pond",
      "thumbnail": {
        "lqip": "data:image\/gif;base64,R0lGODlhBgAFAPQAAElAOElAOktFPExMOkhHQktKQU5LQlNOQVFKRE9SSVRTR15bS19dT1daUFVgWl1gWWBhT2VoT2diUmplU3JqWXhyXWFpYGNuZmZzb211aHR3Z3FxaXl4bGl5cgAAAAAAACH5BAAAAAAALAAAAAAGAAUAAAUYIBIcCyNBhlAQCaBMVBUNjcZtmYN11nOFADs=",
        "width": 5448,
        "height": 4845,
        "alt_text": "Painting of a small pond dense with pink water lilies, their roots visible through the water, a railed footbridge arching over the pond and lush, dark green folliage surrounding it."
      },
      "timestamp": "2025-10-19T02:06:59-05:00"
    },
    {
      "_score": 202.5887,
      "id": 14598,
      "api_model": "artworks",
      "api_link": "https:\/\/api.artic.edu\/api\/v1\/artworks\/14598",
      "is_boosted": true,
      "title": "The Beach at Sainte-Adresse",
      "thumbnail": {
        "lqip": "data:image\/gif;base64,R0lGODlhBwAFAPUAAF5iZnRzb3d0c3x5cXR5fH1\/eneGh36QkYaEgoGIjoaLjYmMjIuPj4mPkIuQkoyRlI6UmI6UmZKWk5SWkJKWlpKXm5KYnZaanJacn5idn5menpycnZyenKCko6enpaeqqK+tqKuurLGzsAAAAAAAAAAAAAAAAAAAAAAAAAAAAAAAAAAAAAAAAAAAAAAAAAAAAAAAAAAAAAAAAAAAAAAAAAAAAAAAAAAAAAAAAAAAAAAAAAAAAAAAAAAAAAAAAAAAACH5BAAAAAAALAAAAAAHAAUAAAYhQIXj0vmERBZMpJKBaAoLBqWReAwCEwLAcBAgQJ4NRxIEADs=",
        "width": 6793,
        "height": 5021,
        "alt_text": "Painting of a beach on a cloudy day with several sailboats on the water, a few rowboats on the shore, and two groupings of people on the sand."
      },
      "timestamp": "2025-10-18T23:24:06-05:00"
    },
    {
      "_score": 196.23387,
      "id": 81537,
      "api_model": "artworks",
      "api_link": "https:\/\/api.artic.edu\/api\/v1\/artworks\/81537",
      "is_boosted": false,
      "title": "Bordighera",
      "thumbnail": {
        "lqip": "data:image\/gif;base64,R0lGODlhBgAFAPQAADc5KUNGLkJCMUZFMUFEN01TPFlXPmVlPWVsO1haRlteRl1cR1ZaT0hPUE5XWlVYVmRkQmVmQmNnSWluSlteYV1lZVlneWBmZ2dwbnd8YGVqeXeEe2t1gX2PhAAAAAAAACH5BAAAAAAALAAAAAAGAAUAAAUY4FUpRtJxVvMwW4ZRmlNMErQEAhIdA0CEADs=",
        "width": 6018,
        "height": 4842,
        "alt_text": "Bright landscape painting featuring spindly trees with lush leaves surrounded by light-green foliage, a small town visible between the trees at center, and a calm blue sea in the background."
      },
      "timestamp": "2025-10-18T23:24:02-05:00"
    },
    {
      "_score": 192.43529,
      "id": 14624,
      "api_model": "artworks",
      "api_link": "https:\/\/api.artic.edu\/api\/v1\/artworks\/14624",
      "is_boosted": false,
      "title": "Stacks of Wheat (End of Day, Autumn)",
      "thumbnail": {
        "lqip": "data:image\/gif;base64,R0lGODlhCAAFAPUAAGlaXX5dVmNgX2xjWXlhVnFjX3ljW2BbZWhjY3xmYHtnZ3ZsaX1ya31wbH1ycn11dH93dX52d393eYBiX4NoZ4NqaIV1cId4d6CQeaWVfIuHiY2GjZGLh5SPh56Xh6edg6SskKuwnbKtpraxprO2pLa0p7W3prWxqAAAAAAAAAAAAAAAAAAAAAAAAAAAAAAAAAAAAAAAAAAAAAAAAAAAAAAAAAAAAAAAAAAAAAAAAAAAAAAAAAAAAAAAAAAAAAAAACH5BAAAAAAALAAAAAAIAAUAAAYlQNFpVDKRQqCNhtPxYDKfA0CAKBAMAwXFcqlMAgkGJCJ5OBqLIAA7",
        "width": 6840,
        "height": 4455,
        "alt_text": "Painting mostly in soft yellow, green, purple, blue, and pink of two wheatstacks, the right nearer than the left, in a country landscape at sunset."
      },
      "timestamp": "2025-10-18T23:25:28-05:00"
    },
    {
      "_score": 188.80667,
      "id": 16564,
      "api_model": "artworks",
      "api_link": "https:\/\/api.artic.edu\/api\/v1\/artworks\/16564",
      "is_boosted": false,
      "title": "Branch of the Seine near Giverny (Mist)",
      "thumbnail": {
        "lqip": "data:image\/gif;base64,R0lGODlhBQAFAPQAAG5xiHJ2iXJ2jXl6k4CCmYWImZCSqpSWr5ubr46OsZuds5qata6nrqamt6ymsaimt6emubausbOstbuzuLiyvKutxK+wxbGww6+00AAAAAAAAAAAAAAAAAAAAAAAAAAAACH5BAAAAAAALAAAAAAFAAUAAAUVICAUERMQiPQMB2ZVyXJRkKE0kxMCADs=",
        "width": 5253,
        "height": 5097,
        "alt_text": "Painting of softly rendered shapes in pale blue, green, and white. A textured green mass at left resembles foliage. Blue and white cloud-like forms fill the rest of the frame."
      },
      "timestamp": "2025-10-18T23:24:04-05:00"
    },
    {
      "_score": 188.13809,
      "id": 81539,
      "api_model": "artworks",
      "api_link": "https:\/\/api.artic.edu\/api\/v1\/artworks\/81539",
      "is_boosted": false,
      "title": "On the Bank of the Seine, Bennecourt",
      "thumbnail": {
        "lqip": "data:image\/gif;base64,R0lGODlhBgAFAPQAADo8JzM3LDw+KTo\/NkVPL0FGNEpHMkBHPUNKPlFLM0pLQlFOQVBaR1NjX2dkUHdxW2Nua2xyY3FwYXJwZ3B5cIR8XYJ\/apCJa4GDcYmJc42Kc4yJe2N2inaPsAAAAAAAACH5BAAAAAAALAAAAAAGAAUAAAUYIFAcCNcJwaBIWWI4T3Ut06ZZGBFRTAOFADs=",
        "width": 6116,
        "height": 4943,
        "alt_text": "Painting of woman in a striped dress seated on the bank of a river, beneath a full, leafy tree, a boat at the shore and a village visible across the river."
      },
      "timestamp": "2025-10-18T23:24:02-05:00"
    }
  ],
  "info": {
    "license_text": "The `description` field in this response is licensed under a Creative Commons Attribution 4.0 Generic License (CC-By) and the Terms and Conditions of artic.edu. All other data in this response is licensed under a Creative Commons Zero (CC0) 1.0 designation and the Terms and Conditions of artic.edu.",
    "license_links": [
      "https:\/\/creativecommons.org\/publicdomain\/zero\/1.0\/",
      "https:\/\/www.artic.edu\/terms"
    ],
    "version": "1.13"
  },
  "config": {
    "iiif_url": "https:\/\/www.artic.edu\/iiif\/2",
    "website_url": "http:\/\/www.artic.edu"
  }
}